{
    "name": "Scripts",
    "rootNamespace": "",
    "references": [
        "Unity.TextMeshPro",
        "Unity.XR.ARFoundation",
        "Unity.XR.CoreUtils",
        "Layout3D"
    ],
    "includePlatforms": [],
    "excludePlatforms": [],
    "allowUnsafeCode": false,
    "overrideReferences": false,
    "precompiledReferences": [],
    "autoReferenced": true,
    "defineConstraints": [],
    "versionDefines": [],
    "noEngineReferences": false
}
